src/mux_design.vcd
$date
	Tue Jun 23 21:21:09 2026
$end
$version
	Icarus Verilog
$end
$timescale
	1ps
$end
$scope module tb_mux64_1 $end
$var wire 1 ! y $end
$var reg 64 " data_in [63:0] $end
$var reg 6 # sel [5:0] $end
$var integer 32 $ errors [31:0] $end
$var integer 32 % i [31:0] $end
$scope module uut $end
$var wire 64 & data_in [63:0] $end
$var wire 6 ' sel [5:0] $end
$var wire 1 ! y $end
$var wire 2 ( stage5 [1:0] $end
$var wire 4 ) stage4 [3:0] $end
$var wire 8 * stage3 [7:0] $end
$var wire 16 + stage2 [15:0] $end
$var wire 32 , stage1 [31:0] $end
$scope begin stage1_gen[0] $end
$var parameter 2 - i $end
$scope module m $end
$var wire 1 . a $end
$var wire 1 / b $end
$var wire 1 0 sel $end
$var wire 1 1 y $end
$upscope $end
$upscope $end
$scope begin stage1_gen[1] $end
$var parameter 2 2 i $end
$scope module m $end
$var wire 1 3 a $end
$var wire 1 4 b $end
$var wire 1 5 sel $end
$var wire 1 6 y $end
$upscope $end
$upscope $end
$scope begin stage1_gen[2] $end
$var parameter 3 7 i $end
$scope module m $end
$var wire 1 8 a $end
$var wire 1 9 b $end
$var wire 1 : sel $end
$var wire 1 ; y $end
$upscope $end
$upscope $end
$scope begin stage1_gen[3] $end
$var parameter 3 < i $end
$scope module m $end
$var wire 1 = a $end
$var wire 1 > b $end
$var wire 1 ? sel $end
$var wire 1 @ y $end
$upscope $end
$upscope $end
$scope begin stage1_gen[4] $end
$var parameter 4 A i $end
$scope module m $end
$var wire 1 B a $end
$var wire 1 C b $end
$var wire 1 D sel $end
$var wire 1 E y $end
$upscope $end
$upscope $end
$scope begin stage1_gen[5] $end
$var parameter 4 F i $end
$scope module m $end
$var wire 1 G a $end
$var wire 1 H b $end
$var wire 1 I sel $end
$var wire 1 J y $end
$upscope $end
$upscope $end
$scope begin stage1_gen[6] $end
$var parameter 4 K i $end
$scope module m $end
$var wire 1 L a $end
$var wire 1 M b $end
$var wire 1 N sel $end
$var wire 1 O y $end
$upscope $end
$upscope $end
$scope begin stage1_gen[7] $end
$var parameter 4 P i $end
$scope module m $end
$var wire 1 Q a $end
$var wire 1 R b $end
$var wire 1 S sel $end
$var wire 1 T y $end
$upscope $end
$upscope $end
$scope begin stage1_gen[8] $end
$var parameter 5 U i $end
$scope module m $end
$var wire 1 V a $end
$var wire 1 W b $end
$var wire 1 X sel $end
$var wire 1 Y y $end
$upscope $end
$upscope $end
$scope begin stage1_gen[9] $end
$var parameter 5 Z i $end
$scope module m $end
$var wire 1 [ a $end
$var wire 1 \ b $end
$var wire 1 ] sel $end
$var wire 1 ^ y $end
$upscope $end
$upscope $end
$scope begin stage1_gen[10] $end
$var parameter 5 _ i $end
$scope module m $end
$var wire 1 ` a $end
$var wire 1 a b $end
$var wire 1 b sel $end
$var wire 1 c y $end
$upscope $end
$upscope $end
$scope begin stage1_gen[11] $end
$var parameter 5 d i $end
$scope module m $end
$var wire 1 e a $end
$var wire 1 f b $end
$var wire 1 g sel $end
$var wire 1 h y $end
$upscope $end
$upscope $end
$scope begin stage1_gen[12] $end
$var parameter 5 i i $end
$scope module m $end
$var wire 1 j a $end
$var wire 1 k b $end
$var wire 1 l sel $end
$var wire 1 m y $end
$upscope $end
$upscope $end
$scope begin stage1_gen[13] $end
$var parameter 5 n i $end
$scope module m $end
$var wire 1 o a $end
$var wire 1 p b $end
$var wire 1 q sel $end
$var wire 1 r y $end
$upscope $end
$upscope $end
$scope begin stage1_gen[14] $end
$var parameter 5 s i $end
$scope module m $end
$var wire 1 t a $end
$var wire 1 u b $end
$var wire 1 v sel $end
$var wire 1 w y $end
$upscope $end
$upscope $end
$scope begin stage1_gen[15] $end
$var parameter 5 x i $end
$scope module m $end
$var wire 1 y a $end
$var wire 1 z b $end
$var wire 1 { sel $end
$var wire 1 | y $end
$upscope $end
$upscope $end
$scope begin stage1_gen[16] $end
$var parameter 6 } i $end
$scope module m $end
$var wire 1 ~ a $end
$var wire 1 !" b $end
$var wire 1 "" sel $end
$var wire 1 #" y $end
$upscope $end
$upscope $end
$scope begin stage1_gen[17] $end
$var parameter 6 $" i $end
$scope module m $end
$var wire 1 %" a $end
$var wire 1 &" b $end
$var wire 1 '" sel $end
$var wire 1 (" y $end
$upscope $end
$upscope $end
$scope begin stage1_gen[18] $end
$var parameter 6 )" i $end
$scope module m $end
$var wire 1 *" a $end
$var wire 1 +" b $end
$var wire 1 ," sel $end
$var wire 1 -" y $end
$upscope $end
$upscope $end
$scope begin stage1_gen[19] $end
$var parameter 6 ." i $end
$scope module m $end
$var wire 1 /" a $end
$var wire 1 0" b $end
$var wire 1 1" sel $end
$var wire 1 2" y $end
$upscope $end
$upscope $end
$scope begin stage1_gen[20] $end
$var parameter 6 3" i $end
$scope module m $end
$var wire 1 4" a $end
$var wire 1 5" b $end
$var wire 1 6" sel $end
$var wire 1 7" y $end
$upscope $end
$upscope $end
$scope begin stage1_gen[21] $end
$var parameter 6 8" i $end
$scope module m $end
$var wire 1 9" a $end
$var wire 1 :" b $end
$var wire 1 ;" sel $end
$var wire 1 <" y $end
$upscope $end
$upscope $end
$scope begin stage1_gen[22] $end
$var parameter 6 =" i $end
$scope module m $end
$var wire 1 >" a $end
$var wire 1 ?" b $end
$var wire 1 @" sel $end
$var wire 1 A" y $end
$upscope $end
$upscope $end
$scope begin stage1_gen[23] $end
$var parameter 6 B" i $end
$scope module m $end
$var wire 1 C" a $end
$var wire 1 D" b $end
$var wire 1 E" sel $end
$var wire 1 F" y $end
$upscope $end
$upscope $end
$scope begin stage1_gen[24] $end
$var parameter 6 G" i $end
$scope module m $end
$var wire 1 H" a $end
$var wire 1 I" b $end
$var wire 1 J" sel $end
$var wire 1 K" y $end
$upscope $end
$upscope $end
$scope begin stage1_gen[25] $end
$var parameter 6 L" i $end
$scope module m $end
$var wire 1 M" a $end
$var wire 1 N" b $end
$var wire 1 O" sel $end
$var wire 1 P" y $end
$upscope $end
$upscope $end
$scope begin stage1_gen[26] $end
$var parameter 6 Q" i $end
$scope module m $end
$var wire 1 R" a $end
$var wire 1 S" b $end
$var wire 1 T" sel $end
$var wire 1 U" y $end
$upscope $end
$upscope $end
$scope begin stage1_gen[27] $end
$var parameter 6 V" i $end
$scope module m $end
$var wire 1 W" a $end
$var wire 1 X" b $end
$var wire 1 Y" sel $end
$var wire 1 Z" y $end
$upscope $end
$upscope $end
$scope begin stage1_gen[28] $end
$var parameter 6 [" i $end
$scope module m $end
$var wire 1 \" a $end
$var wire 1 ]" b $end
$var wire 1 ^" sel $end
$var wire 1 _" y $end
$upscope $end
$upscope $end
$scope begin stage1_gen[29] $end
$var parameter 6 `" i $end
$scope module m $end
$var wire 1 a" a $end
$var wire 1 b" b $end
$var wire 1 c" sel $end
$var wire 1 d" y $end
$upscope $end
$upscope $end
$scope begin stage1_gen[30] $end
$var parameter 6 e" i $end
$scope module m $end
$var wire 1 f" a $end
$var wire 1 g" b $end
$var wire 1 h" sel $end
$var wire 1 i" y $end
$upscope $end
$upscope $end
$scope begin stage1_gen[31] $end
$var parameter 6 j" i $end
$scope module m $end
$var wire 1 k" a $end
$var wire 1 l" b $end
$var wire 1 m" sel $end
$var wire 1 n" y $end
$upscope $end
$upscope $end
$scope begin stage2_gen[0] $end
$var parameter 2 o" i $end
$scope module m $end
$var wire 1 p" a $end
$var wire 1 q" b $end
$var wire 1 r" sel $end
$var wire 1 s" y $end
$upscope $end
$upscope $end
$scope begin stage2_gen[1] $end
$var parameter 2 t" i $end
$scope module m $end
$var wire 1 u" a $end
$var wire 1 v" b $end
$var wire 1 w" sel $end
$var wire 1 x" y $end
$upscope $end
$upscope $end
$scope begin stage2_gen[2] $end
$var parameter 3 y" i $end
$scope module m $end
$var wire 1 z" a $end
$var wire 1 {" b $end
$var wire 1 |" sel $end
$var wire 1 }" y $end
$upscope $end
$upscope $end
$scope begin stage2_gen[3] $end
$var parameter 3 ~" i $end
$scope module m $end
$var wire 1 !# a $end
$var wire 1 "# b $end
$var wire 1 ## sel $end
$var wire 1 $# y $end
$upscope $end
$upscope $end
$scope begin stage2_gen[4] $end
$var parameter 4 %# i $end
$scope module m $end
$var wire 1 &# a $end
$var wire 1 '# b $end
$var wire 1 (# sel $end
$var wire 1 )# y $end
$upscope $end
$upscope $end
$scope begin stage2_gen[5] $end
$var parameter 4 *# i $end
$scope module m $end
$var wire 1 +# a $end
$var wire 1 ,# b $end
$var wire 1 -# sel $end
$var wire 1 .# y $end
$upscope $end
$upscope $end
$scope begin stage2_gen[6] $end
$var parameter 4 /# i $end
$scope module m $end
$var wire 1 0# a $end
$var wire 1 1# b $end
$var wire 1 2# sel $end
$var wire 1 3# y $end
$upscope $end
$upscope $end
$scope begin stage2_gen[7] $end
$var parameter 4 4# i $end
$scope module m $end
$var wire 1 5# a $end
$var wire 1 6# b $end
$var wire 1 7# sel $end
$var wire 1 8# y $end
$upscope $end
$upscope $end
$scope begin stage2_gen[8] $end
$var parameter 5 9# i $end
$scope module m $end
$var wire 1 :# a $end
$var wire 1 ;# b $end
$var wire 1 <# sel $end
$var wire 1 =# y $end
$upscope $end
$upscope $end
$scope begin stage2_gen[9] $end
$var parameter 5 ># i $end
$scope module m $end
$var wire 1 ?# a $end
$var wire 1 @# b $end
$var wire 1 A# sel $end
$var wire 1 B# y $end
$upscope $end
$upscope $end
$scope begin stage2_gen[10] $end
$var parameter 5 C# i $end
$scope module m $end
$var wire 1 D# a $end
$var wire 1 E# b $end
$var wire 1 F# sel $end
$var wire 1 G# y $end
$upscope $end
$upscope $end
$scope begin stage2_gen[11] $end
$var parameter 5 H# i $end
$scope module m $end
$var wire 1 I# a $end
$var wire 1 J# b $end
$var wire 1 K# sel $end
$var wire 1 L# y $end
$upscope $end
$upscope $end
$scope begin stage2_gen[12] $end
$var parameter 5 M# i $end
$scope module m $end
$var wire 1 N# a $end
$var wire 1 O# b $end
$var wire 1 P# sel $end
$var wire 1 Q# y $end
$upscope $end
$upscope $end
$scope begin stage2_gen[13] $end
$var parameter 5 R# i $end
$scope module m $end
$var wire 1 S# a $end
$var wire 1 T# b $end
$var wire 1 U# sel $end
$var wire 1 V# y $end
$upscope $end
$upscope $end
$scope begin stage2_gen[14] $end
$var parameter 5 W# i $end
$scope module m $end
$var wire 1 X# a $end
$var wire 1 Y# b $end
$var wire 1 Z# sel $end
$var wire 1 [# y $end
$upscope $end
$upscope $end
$scope begin stage2_gen[15] $end
$var parameter 5 \# i $end
$scope module m $end
$var wire 1 ]# a $end
$var wire 1 ^# b $end
$var wire 1 _# sel $end
$var wire 1 `# y $end
$upscope $end
$upscope $end
$scope begin stage3_gen[0] $end
$var parameter 2 a# i $end
$scope module m $end
$var wire 1 b# a $end
$var wire 1 c# b $end
$var wire 1 d# sel $end
$var wire 1 e# y $end
$upscope $end
$upscope $end
$scope begin stage3_gen[1] $end
$var parameter 2 f# i $end
$scope module m $end
$var wire 1 g# a $end
$var wire 1 h# b $end
$var wire 1 i# sel $end
$var wire 1 j# y $end
$upscope $end
$upscope $end
$scope begin stage3_gen[2] $end
$var parameter 3 k# i $end
$scope module m $end
$var wire 1 l# a $end
$var wire 1 m# b $end
$var wire 1 n# sel $end
$var wire 1 o# y $end
$upscope $end
$upscope $end
$scope begin stage3_gen[3] $end
$var parameter 3 p# i $end
$scope module m $end
$var wire 1 q# a $end
$var wire 1 r# b $end
$var wire 1 s# sel $end
$var wire 1 t# y $end
$upscope $end
$upscope $end
$scope begin stage3_gen[4] $end
$var parameter 4 u# i $end
$scope module m $end
$var wire 1 v# a $end
$var wire 1 w# b $end
$var wire 1 x# sel $end
$var wire 1 y# y $end
$upscope $end
$upscope $end
$scope begin stage3_gen[5] $end
$var parameter 4 z# i $end
$scope module m $end
$var wire 1 {# a $end
$var wire 1 |# b $end
$var wire 1 }# sel $end
$var wire 1 ~# y $end
$upscope $end
$upscope $end
$scope begin stage3_gen[6] $end
$var parameter 4 !$ i $end
$scope module m $end
$var wire 1 "$ a $end
$var wire 1 #$ b $end
$var wire 1 $$ sel $end
$var wire 1 %$ y $end
$upscope $end
$upscope $end
$scope begin stage3_gen[7] $end
$var parameter 4 &$ i $end
$scope module m $end
$var wire 1 '$ a $end
$var wire 1 ($ b $end
$var wire 1 )$ sel $end
$var wire 1 *$ y $end
$upscope $end
$upscope $end
$scope begin stage4_gen[0] $end
$var parameter 2 +$ i $end
$scope module m $end
$var wire 1 ,$ a $end
$var wire 1 -$ b $end
$var wire 1 .$ sel $end
$var wire 1 /$ y $end
$upscope $end
$upscope $end
$scope begin stage4_gen[1] $end
$var parameter 2 0$ i $end
$scope module m $end
$var wire 1 1$ a $end
$var wire 1 2$ b $end
$var wire 1 3$ sel $end
$var wire 1 4$ y $end
$upscope $end
$upscope $end
$scope begin stage4_gen[2] $end
$var parameter 3 5$ i $end
$scope module m $end
$var wire 1 6$ a $end
$var wire 1 7$ b $end
$var wire 1 8$ sel $end
$var wire 1 9$ y $end
$upscope $end
$upscope $end
$scope begin stage4_gen[3] $end
$var parameter 3 :$ i $end
$scope module m $end
$var wire 1 ;$ a $end
$var wire 1 <$ b $end
$var wire 1 =$ sel $end
$var wire 1 >$ y $end
$upscope $end
$upscope $end
$scope begin stage5_gen[0] $end
$var parameter 2 ?$ i $end
$scope module m $end
$var wire 1 @$ a $end
$var wire 1 A$ b $end
$var wire 1 B$ sel $end
$var wire 1 C$ y $end
$upscope $end
$upscope $end
$scope begin stage5_gen[1] $end
$var parameter 2 D$ i $end
$scope module m $end
$var wire 1 E$ a $end
$var wire 1 F$ b $end
$var wire 1 G$ sel $end
$var wire 1 H$ y $end
$upscope $end
$upscope $end
$scope module final_mux $end
$var wire 1 I$ a $end
$var wire 1 J$ b $end
$var wire 1 K$ sel $end
$var wire 1 ! y $end
$upscope $end
$upscope $end
$upscope $end
$enddefinitions $end
$comment Show the parameter values. $end
$dumpall
b1 D$
b0 ?$
b11 :$
b10 5$
b1 0$
b0 +$
b111 &$
b110 !$
b101 z#
b100 u#
b11 p#
b10 k#
b1 f#
b0 a#
b1111 \#
b1110 W#
b1101 R#
b1100 M#
b1011 H#
b1010 C#
b1001 >#
b1000 9#
b111 4#
b110 /#
b101 *#
b100 %#
b11 ~"
b10 y"
b1 t"
b0 o"
b11111 j"
b11110 e"
b11101 `"
b11100 ["
b11011 V"
b11010 Q"
b11001 L"
b11000 G"
b10111 B"
b10110 ="
b10101 8"
b10100 3"
b10011 ."
b10010 )"
b10001 $"
b10000 }
b1111 x
b1110 s
b1101 n
b1100 i
b1011 d
b1010 _
b1001 Z
b1000 U
b111 P
b110 K
b101 F
b100 A
b11 <
b10 7
b1 2
b0 -
$end
#0
$dumpvars
0K$
1J$
0I$
1H$
0G$
1F$
1E$
0C$
0B$
1A$
0@$
1>$
0=$
1<$
1;$
19$
08$
17$
16$
14$
03$
12$
11$
0/$
0.$
0-$
0,$
1*$
0)$
0($
1'$
1%$
0$$
0#$
1"$
1~#
0}#
0|#
1{#
1y#
0x#
0w#
1v#
1t#
0s#
0r#
1q#
1o#
0n#
0m#
1l#
0j#
0i#
1h#
0g#
0e#
0d#
1c#
0b#
0`#
0_#
0^#
0]#
1[#
0Z#
1Y#
1X#
0V#
0U#
0T#
0S#
1Q#
0P#
1O#
1N#
0L#
0K#
0J#
0I#
1G#
0F#
1E#
1D#
0B#
0A#
0@#
0?#
1=#
0<#
1;#
1:#
08#
07#
16#
05#
13#
02#
01#
10#
0.#
0-#
1,#
0+#
1)#
0(#
0'#
1&#
1$#
0##
1"#
1!#
0}"
0|"
0{"
0z"
1x"
0w"
1v"
1u"
0s"
0r"
0q"
0p"
0n"
0m"
1l"
0k"
0i"
0h"
1g"
0f"
1d"
0c"
0b"
1a"
1_"
0^"
0]"
1\"
0Z"
0Y"
1X"
0W"
0U"
0T"
1S"
0R"
1P"
0O"
0N"
1M"
1K"
0J"
0I"
1H"
0F"
0E"
0D"
0C"
0A"
0@"
0?"
0>"
1<"
0;"
1:"
19"
17"
06"
15"
14"
02"
01"
00"
0/"
0-"
0,"
0+"
0*"
1("
0'"
1&"
1%"
1#"
0""
1!"
1~
1|
0{
1z
1y
0w
0v
0u
0t
0r
0q
0p
0o
1m
0l
1k
1j
1h
0g
1f
1e
0c
0b
0a
0`
0^
0]
0\
0[
1Y
0X
1W
1V
1T
0S
0R
1Q
1O
0N
0M
1L
0J
0I
1H
0G
0E
0D
1C
0B
1@
0?
0>
1=
1;
0:
09
18
06
05
14
03
01
00
1/
0.
b110011001100111001100111001100 ,
b101010101011010 +
b11111100 *
b1110 )
b10 (
b0 '
b1010010110100101000011110000111111000011110000110101101001011010 &
bx %
b0 $
b0 #
b1010010110100101000011110000111111000011110000110101101001011010 "
0!
$end
#10000
b0 %
#15000
1!
1I$
b11 (
1C$
1@$
0F$
1/$
b111 )
0>$
1,$
1-$
0;$
0<$
1e#
1j#
0%$
b111111 *
0*$
1b#
0c#
1g#
0h#
0"$
1#$
0'$
1($
1s"
0x"
1}"
0$#
0Q#
1V#
0[#
b1010010101010101 +
1`#
1p"
1q"
0u"
0v"
1z"
1{"
0!#
0"#
0N#
0O#
1S#
1T#
0X#
0Y#
1]#
1^#
11
16
0;
0@
1E
1J
0O
0T
0K"
0P"
1U"
1Z"
0_"
0d"
1i"
b11001100001100111001100100110011 ,
1n"
10
15
1:
1?
1D
1I
1N
1S
1X
1]
1b
1g
1l
1q
1v
1{
1""
1'"
1,"
11"
16"
1;"
1@"
1E"
1J"
1O"
1T"
1Y"
1^"
1c"
1h"
1m"
b1 #
b1 '
b1 %
#20000
0!
0I$
b10 (
0C$
0@$
1F$
0/$
1>$
0,$
0-$
1;$
1<$
0A$
0e#
0j#
1%$
1*$
b1100 )
04$
0b#
1c#
0g#
1h#
1"$
0#$
1'$
0($
01$
02$
0s"
1x"
0}"
1$#
1Q#
0V#
1[#
0`#
0o#
b11110000 *
0t#
0p"
0q"
1u"
1v"
0z"
0{"
1!#
1"#
1N#
1O#
0S#
0T#
1X#
1Y#
0]#
0^#
0l#
1m#
0q#
1r#
01
06
1;
1@
0E
0J
1O
1T
1K"
1P"
0U"
0Z"
1_"
1d"
0i"
b110011001100111001100111001100 ,
0n"
0)#
1.#
03#
b101010110101010 +
18#
00
05
0:
0?
0D
0I
0N
0S
0X
0]
0b
0g
0l
0q
0v
0{
0""
0'"
0,"
01"
06"
0;"
0@"
0E"
0J"
0O"
0T"
0Y"
0^"
0c"
0h"
0m"
1r"
1w"
1|"
1##
1(#
1-#
12#
17#
1<#
1A#
1F#
1K#
1P#
1U#
1Z#
1_#
b10 #
b10 '
b10 %
#25000
1!
1I$
b11 (
1C$
1@$
0F$
1/$
b101 )
0>$
1,$
1-$
0;$
0<$
1e#
1j#
0%$
b110011 *
0*$
1b#
0c#
1g#
0h#
0"$
1#$
0'$
1($
1s"
0x"
1}"
0$#
0Q#
1V#
0[#
b1010010110100101 +
1`#
1p"
1q"
0u"
0v"
1z"
1{"
0!#
0"#
0N#
0O#
1S#
1T#
0X#
0Y#
1]#
1^#
11
16
0;
0@
1E
1J
0O
0T
0K"
0P"
1U"
1Z"
0_"
0d"
1i"
b11001100001100111001100100110011 ,
1n"
10
15
1:
1?
1D
1I
1N
1S
1X
1]
1b
1g
1l
1q
1v
1{
1""
1'"
1,"
11"
16"
1;"
1@"
1E"
1J"
1O"
1T"
1Y"
1^"
1c"
1h"
1m"
b11 #
b11 '
b11 %
#30000
1!
1I$
0J$
1C$
b1 (
0H$
0b#
1c#
0g#
1h#
1"$
0#$
1'$
0($
1@$
0A$
0E$
0F$
0s"
1x"
0}"
1$#
1Q#
0V#
1[#
0`#
1/$
04$
09$
b1 )
0>$
0p"
0q"
1u"
1v"
0z"
0{"
1!#
1"#
1N#
1O#
0S#
0T#
1X#
1Y#
0]#
0^#
1l#
0m#
1q#
0r#
1,$
1-$
01$
02$
06$
07$
0;$
0<$
01
06
1;
1@
0E
0J
1O
1T
1K"
1P"
0U"
0Z"
1_"
1d"
0i"
b110011001100111001100111001100 ,
0n"
1)#
0.#
13#
b101010101011010 +
08#
1e#
1j#
0o#
0t#
0y#
0~#
0%$
b11 *
0*$
00
05
0:
0?
0D
0I
0N
0S
0X
0]
0b
0g
0l
0q
0v
0{
0""
0'"
0,"
01"
06"
0;"
0@"
0E"
0J"
0O"
0T"
0Y"
0^"
0c"
0h"
0m"
0r"
0w"
0|"
0##
0(#
0-#
02#
07#
0<#
0A#
0F#
0K#
0P#
0U#
0Z#
0_#
1d#
1i#
1n#
1s#
1x#
1}#
1$$
1)$
b100 #
b100 '
b100 %
#35000
0!
0I$
b0 (
0C$
0@$
1F$
0/$
b1000 )
1>$
0,$
0-$
1;$
1<$
0e#
0j#
1%$
b11000000 *
1*$
1b#
0c#
1g#
0h#
0"$
1#$
0'$
1($
1s"
0x"
1}"
0$#
0Q#
1V#
0[#
b1010010101010101 +
1`#
1p"
1q"
0u"
0v"
1z"
1{"
0!#
0"#
0N#
0O#
1S#
1T#
0X#
0Y#
1]#
1^#
11
16
0;
0@
1E
1J
0O
0T
0K"
0P"
1U"
1Z"
0_"
0d"
1i"
b11001100001100111001100100110011 ,
1n"
10
15
1:
1?
1D
1I
1N
1S
1X
1]
1b
1g
1l
1q
1v
1{
1""
1'"
1,"
11"
16"
1;"
1@"
1E"
1J"
1O"
1T"
1Y"
1^"
1c"
1h"
1m"
b101 #
b101 '
b101 %
#40000
1!
1I$
b1 (
1C$
1@$
0F$
1/$
0>$
1,$
1-$
0;$
0<$
1A$
1e#
1j#
0%$
0*$
b11 )
14$
0b#
1c#
0g#
1h#
1"$
0#$
1'$
0($
11$
12$
0s"
1x"
0}"
1$#
1Q#
0V#
1[#
0`#
1o#
b1111 *
1t#
0p"
0q"
1u"
1v"
0z"
0{"
1!#
1"#
1N#
1O#
0S#
0T#
1X#
1Y#
0]#
0^#
0l#
1m#
0q#
1r#
01
06
1;
1@
0E
0J
1O
1T
1K"
1P"
0U"
0Z"
1_"
1d"
0i"
b110011001100111001100111001100 ,
0n"
0)#
1.#
03#
b101010110101010 +
18#
00
05
0:
0?
0D
0I
0N
0S
0X
0]
0b
0g
0l
0q
0v
0{
0""
0'"
0,"
01"
06"
0;"
0@"
0E"
0J"
0O"
0T"
0Y"
0^"
0c"
0h"
0m"
1r"
1w"
1|"
1##
1(#
1-#
12#
17#
1<#
1A#
1F#
1K#
1P#
1U#
1Z#
1_#
b110 #
b110 '
b110 %
#45000
0!
0I$
b0 (
0C$
0@$
1F$
0/$
b1010 )
1>$
0,$
0-$
1;$
1<$
0e#
0j#
1%$
b11001100 *
1*$
1b#
0c#
1g#
0h#
0"$
1#$
0'$
1($
1s"
0x"
1}"
0$#
0Q#
1V#
0[#
b1010010110100101 +
1`#
1p"
1q"
0u"
0v"
1z"
1{"
0!#
0"#
0N#
0O#
1S#
1T#
0X#
0Y#
1]#
1^#
11
16
0;
0@
1E
1J
0O
0T
0K"
0P"
1U"
1Z"
0_"
0d"
1i"
b11001100001100111001100100110011 ,
1n"
10
15
1:
1?
1D
1I
1N
1S
1X
1]
1b
1g
1l
1q
1v
1{
1""
1'"
1,"
11"
16"
1;"
1@"
1E"
1J"
1O"
1T"
1Y"
1^"
1c"
1h"
1m"
b111 #
b111 '
b111 %
#50000
0!
0I$
1J$
0C$
b10 (
1H$
0b#
1c#
0g#
1h#
1"$
0#$
1'$
0($
0@$
1A$
1E$
1F$
0s"
1x"
0}"
1$#
1Q#
0V#
1[#
0`#
0/$
14$
19$
b1110 )
1>$
0p"
0q"
1u"
1v"
0z"
0{"
1!#
1"#
1N#
1O#
0S#
0T#
1X#
1Y#
0]#
0^#
1l#
0m#
1q#
0r#
0,$
0-$
11$
12$
16$
17$
1;$
1<$
01
06
1;
1@
0E
0J
1O
1T
1K"
1P"
0U"
0Z"
1_"
1d"
0i"
b110011001100111001100111001100 ,
0n"
1)#
0.#
13#
b101010101011010 +
08#
0e#
0j#
1o#
1t#
1y#
1~#
1%$
b11111100 *
1*$
00
05
0:
0?
0D
0I
0N
0S
0X
0]
0b
0g
0l
0q
0v
0{
0""
0'"
0,"
01"
06"
0;"
0@"
0E"
0J"
0O"
0T"
0Y"
0^"
0c"
0h"
0m"
0r"
0w"
0|"
0##
0(#
0-#
02#
07#
0<#
0A#
0F#
0K#
0P#
0U#
0Z#
0_#
0d#
0i#
0n#
0s#
0x#
0}#
0$$
0)$
1.$
13$
18$
1=$
b1000 #
b1000 '
b1000 %
#55000
1!
1I$
b11 (
1C$
1@$
0F$
1/$
b111 )
0>$
1,$
1-$
0;$
0<$
1e#
1j#
0%$
b111111 *
0*$
1b#
0c#
1g#
0h#
0"$
1#$
0'$
1($
1s"
0x"
1}"
0$#
0Q#
1V#
0[#
b1010010101010101 +
1`#
1p"
1q"
0u"
0v"
1z"
1{"
0!#
0"#
0N#
0O#
1S#
1T#
0X#
0Y#
1]#
1^#
11
16
0;
0@
1E
1J
0O
0T
0K"
0P"
1U"
1Z"
0_"
0d"
1i"
b11001100001100111001100100110011 ,
1n"
10
15
1:
1?
1D
1I
1N
1S
1X
1]
1b
1g
1l
1q
1v
1{
1""
1'"
1,"
11"
16"
1;"
1@"
1E"
1J"
1O"
1T"
1Y"
1^"
1c"
1h"
1m"
b1001 #
b1001 '
b1001 %
#60000
0!
0I$
b10 (
0C$
0@$
1F$
0/$
1>$
0,$
0-$
1;$
1<$
0A$
0e#
0j#
1%$
1*$
b1100 )
04$
0b#
1c#
0g#
1h#
1"$
0#$
1'$
0($
01$
02$
0s"
1x"
0}"
1$#
1Q#
0V#
1[#
0`#
0o#
b11110000 *
0t#
0p"
0q"
1u"
1v"
0z"
0{"
1!#
1"#
1N#
1O#
0S#
0T#
1X#
1Y#
0]#
0^#
0l#
1m#
0q#
1r#
01
06
1;
1@
0E
0J
1O
1T
1K"
1P"
0U"
0Z"
1_"
1d"
0i"
b110011001100111001100111001100 ,
0n"
0)#
1.#
03#
b101010110101010 +
18#
00
05
0:
0?
0D
0I
0N
0S
0X
0]
0b
0g
0l
0q
0v
0{
0""
0'"
0,"
01"
06"
0;"
0@"
0E"
0J"
0O"
0T"
0Y"
0^"
0c"
0h"
0m"
1r"
1w"
1|"
1##
1(#
1-#
12#
17#
1<#
1A#
1F#
1K#
1P#
1U#
1Z#
1_#
b1010 #
b1010 '
b1010 %
#65000
1!
1I$
b11 (
1C$
1@$
0F$
1/$
b101 )
0>$
1,$
1-$
0;$
0<$
1e#
1j#
0%$
b110011 *
0*$
1b#
0c#
1g#
0h#
0"$
1#$
0'$
1($
1s"
0x"
1}"
0$#
0Q#
1V#
0[#
b1010010110100101 +
1`#
1p"
1q"
0u"
0v"
1z"
1{"
0!#
0"#
0N#
0O#
1S#
1T#
0X#
0Y#
1]#
1^#
11
16
0;
0@
1E
1J
0O
0T
0K"
0P"
1U"
1Z"
0_"
0d"
1i"
b11001100001100111001100100110011 ,
1n"
10
15
1:
1?
1D
1I
1N
1S
1X
1]
1b
1g
1l
1q
1v
1{
1""
1'"
1,"
11"
16"
1;"
1@"
1E"
1J"
1O"
1T"
1Y"
1^"
1c"
1h"
1m"
b1011 #
b1011 '
b1011 %
#70000
1!
1I$
0J$
1C$
b1 (
0H$
0b#
1c#
0g#
1h#
1"$
0#$
1'$
0($
1@$
0A$
0E$
0F$
0s"
1x"
0}"
1$#
1Q#
0V#
1[#
0`#
1/$
04$
09$
b1 )
0>$
0p"
0q"
1u"
1v"
0z"
0{"
1!#
1"#
1N#
1O#
0S#
0T#
1X#
1Y#
0]#
0^#
1l#
0m#
1q#
0r#
1,$
1-$
01$
02$
06$
07$
0;$
0<$
01
06
1;
1@
0E
0J
1O
1T
1K"
1P"
0U"
0Z"
1_"
1d"
0i"
b110011001100111001100111001100 ,
0n"
1)#
0.#
13#
b101010101011010 +
08#
1e#
1j#
0o#
0t#
0y#
0~#
0%$
b11 *
0*$
00
05
0:
0?
0D
0I
0N
0S
0X
0]
0b
0g
0l
0q
0v
0{
0""
0'"
0,"
01"
06"
0;"
0@"
0E"
0J"
0O"
0T"
0Y"
0^"
0c"
0h"
0m"
0r"
0w"
0|"
0##
0(#
0-#
02#
07#
0<#
0A#
0F#
0K#
0P#
0U#
0Z#
0_#
1d#
1i#
1n#
1s#
1x#
1}#
1$$
1)$
b1100 #
b1100 '
b1100 %
#75000
0!
0I$
b0 (
0C$
0@$
1F$
0/$
b1000 )
1>$
0,$
0-$
1;$
1<$
0e#
0j#
1%$
b11000000 *
1*$
1b#
0c#
1g#
0h#
0"$
1#$
0'$
1($
1s"
0x"
1}"
0$#
0Q#
1V#
0[#
b1010010101010101 +
1`#
1p"
1q"
0u"
0v"
1z"
1{"
0!#
0"#
0N#
0O#
1S#
1T#
0X#
0Y#
1]#
1^#
11
16
0;
0@
1E
1J
0O
0T
0K"
0P"
1U"
1Z"
0_"
0d"
1i"
b11001100001100111001100100110011 ,
1n"
10
15
1:
1?
1D
1I
1N
1S
1X
1]
1b
1g
1l
1q
1v
1{
1""
1'"
1,"
11"
16"
1;"
1@"
1E"
1J"
1O"
1T"
1Y"
1^"
1c"
1h"
1m"
b1101 #
b1101 '
b1101 %
